…
Therefore we have 13.1% of NA's, which means we don't have to worry too much about it and there must be a reason why there is a lot of missing values in the first rows.


## What is mean total number of steps taken per day?  
### Calculating the total number of steps per day :  

To get the total number of steps per day we use the group_by and summarize strategy :

```r
steps_per_date<-data%>%group_by(date)%>%summarize(total.steps=sum(steps,na.rm=TRUE))
steps_per_date
```

```
## # A tibble: 61 x 2
##    date       total.steps
##    <date>           <int>
##  1 2012-10-01           0
##  2 2012-10-02         126
##  3 2012-10-03       11352
##  4 2012-10-04       12116
##  5 2012-10-05       13294
##  6 2012-10-06       15420
##  7 2012-10-07       11015
##  8 2012-10-08           0
##  9 2012-10-09       12811
## 10 2012-10-10        9900
## # ... with 51 more rows
```
…
